Lecture 5a: Using AI as a programming assistant
…
# Determine which players have an above-average wOBA for their specific year
data <- data %>%
  mutate(above_average_wOBA = ifelse(wOBA > average_wOBA, 1, 0))

# Compute the proportion of players on each team with an above-average wOBA for their specific year
proportion_above_average_wOBA <- data %>%
  group_by(teamID, yearID) %>%
  summarize(proportion = mean(above_average_wOBA, na.rm = TRUE))

# Display the result
proportion_above_average_wOBA

## # A tibble: 2,599 × 3
## # Groups:   teamID [90]
##    teamID yearID proportion
##    <chr>   <dbl>      <dbl>
##  1 A        1997      0.5  
##  2 A        1998      0.6  
##  3 A        1999      0.25 
##  4 A        2000      0.571
##  5 A        2001      0.143
##  6 A        2002      0.429
##  7 A        2003      0.4  
##  8 A        2004      0.333
##  9 ARI      1998      0    
## 10 ARI      1999      0.8  
## # ℹ 2,589 more rows
…
