Lecture 3: Piping & Grouped Comparisons
…
pitching_summary <- 
  pitching %>% 
  summarize(mean = mean(ERA), sd = sd(ERA))

In Lecture 2, we listed a few useful
functions to be used within summarize(). One of them,
n(), returns counts and is especially useful when used on a
grouped tibble. We can, for instance, count the number of pitchers in
our dataset within each year using n().

pitching %>% 
  summarize(count = n()) %>%
  arrange(count)

## # A tibble: 145 × 2
##    yearID count
##     <int> <int>
##  1   1877     7
##  2   1878     7
##  3   1880    12
##  4   1876    13
##  5   1879    13
##  6   1883    13
##  7   1881    14
##  8   1882    14
##  9   1884    19
## 10   1885    19
## # … with 135 more rows
…
Once we add a grouping to our tibble, it also changes the way
mutate() operates on the tibble. We can now standardize
each pitcher’s ERA within each year and save that result in a column
called zERA_year.

pitching <-
  pitching %>%
  mutate(zERA_year = standardize(ERA))
pitching %>% arrange(zERA_year)

## # A tibble: 9,577 × 8
## # Groups:   yearID [145]
##    playerID  yearID teamID lgID     IP   ERA zERA_all zERA_year
##    <chr>      <int> <fct>  <fct> <dbl> <dbl>    <dbl>     <dbl>
##  1 leonadu01   1914 BOS    AL     225.  0.96    -3.01     -3.48
##  2 martipe02   2000 BOS    AL     217   1.74    -2.12     -3.16
##  3 maddugr01   1995 ATL    NL     210.  1.63    -2.25     -3.02
##  4 luquedo01   1923 CIN    NL     322   1.93    -1.91     -2.88
##  5 martipe02   1999 BOS    AL     213.  2.07    -1.75     -2.85
##  6 brownke01   1996 FLO    NL     233   1.89    -1.95     -2.82
##  7 eichhma01   1986 TOR    AL     157   1.72    -2.15     -2.81
##  8 maddugr01   1994 ATL    NL     202   1.56    -2.33     -2.79
##  9 piercbi02   1955 CHA    AL     206.  1.97    -1.86     -2.77
## 10 hubbeca01   1933 NY1    NL     309.  1.66    -2.22     -2.77
## # … with 9,567 more rows
…
pitching <-
  pitching %>%
  group_by(yearID, lgID) %>%
  mutate(zERA_year_lg = standardize(ERA),
         count_year_lg = n())
pitching

## # A tibble: 9,577 × 10
## # Groups:   yearID, lgID [265]
##    playerID  yearID teamID lgID     IP   ERA zERA_all zERA_year zERA_year_lg count_year_lg
##    <chr>      <int> <fct>  <fct> <dbl> <dbl>    <dbl>     <dbl>        <dbl>         <int>
##  1 bondto01    1876 HAR    NL     408   1.68   -2.19    -0.887       -0.887             13
##  2 bordejo01   1876 BSN    NL     218.  2.89   -0.819    0.554        0.554             13
##  3 bradlfo01   1876 BSN    NL     173.  2.49   -1.27     0.0779       0.0779            13
##  4 bradlge01   1876 SL3    NL     573   1.23   -2.70    -1.42        -1.42              13
##  5 cummica01   1876 HAR    NL     216   1.67   -2.20    -0.899       -0.899             13
##  6 deando01    1876 CN1    NL     263.  3.73    0.134    1.55         1.55              13
##  7 devliji01   1876 LS1    NL     622   1.56   -2.33    -1.03        -1.03              13
##  8 fishech01   1876 CN1    NL     229.  3.02   -0.672    0.709        0.709             13
##  9 knighlo01   1876 PHN    NL     282   2.62   -1.13     0.233        0.233             13
## 10 mannija01   1876 BSN    NL     197.  2.14   -1.67    -0.339       -0.339             13
## # … with 9,567 more rows
…
