Lecture 2: Visualization and More Data Wrangling
…
!= for “not equal to”

< and <= for “less than” and “less
than or equal to”

> and >= for “greater than” and
“greater than or equal to”

&, |, ! for “AND” and
“OR” and “NOT” The code below filter out all of the players with at
least 100 field goals in a single season

filter(raw_shooting, FGA > 100)

## # A tibble: 6,295 × 14
##    PLAYER            SEASON   FGM   FGA   TPM   TPA   FTM   FTA   FGP   TPP   FTP  eFGP   PTS   TSP
##    <chr>              <dbl> <dbl> <dbl> <dbl> <dbl> <dbl> <dbl> <dbl> <dbl> <dbl> <dbl> <dbl> <dbl>
##  1 Stephen Curry       2016   805  1597   402   887   363   400 0.504 0.453 0.908 0.630  2375 0.670
##  2 James Harden        2016   710  1617   236   657   720   837 0.439 0.359 0.860 0.512  2376 0.598
##  3 Kevin Durant        2016   698  1381   186   480   447   498 0.505 0.388 0.898 0.573  2029 0.634
##  4 DeMarcus Cousins    2016   601  1332    70   210   476   663 0.451 0.333 0.718 0.477  1748 0.538
##  5 LeBron James        2016   737  1416    87   282   359   491 0.520 0.309 0.731 0.551  1920 0.588
##  6 Damian Lillard      2016   618  1474   229   610   414   464 0.419 0.375 0.892 0.497  1879 0.560
##  7 Anthony Davis       2016   560  1137    35   108   326   430 0.493 0.324 0.758 0.508  1481 0.558
##  8 Russell Westbrook   2016   656  1444   101   341   465   573 0.454 0.296 0.812 0.489  1878 0.554
##  9 DeMar DeRozan       2016   614  1377    47   139   555   653 0.446 0.338 0.850 0.463  1830 0.550
## 10 Paul George         2016   605  1448   210   565   454   528 0.418 0.372 0.860 0.490  1874 0.558
## # … with 6,285 more rows

When we run this code, you’ll notice that R prints out a tbl with
6,295 rows.

We can also filter on more complicated conditions constructed using
the AND, OR, and NOT operators: &, |, and
!. For instance, to filter observations with at least 100
field goal attempts OR 50 three point attempts, we would do

filter(raw_shooting, FGA >= 100 | TPA >= 50)

## # A tibble: 6,328 × 14
##    PLAYER            SEASON   FGM   FGA   TPM   TPA   FTM   FTA   FGP   TPP   FTP  eFGP   PTS   TSP
##    <chr>              <dbl> <dbl> <dbl> <dbl> <dbl> <dbl> <dbl> <dbl> <dbl> <dbl> <dbl> <dbl> <dbl>
##  1 Stephen Curry       2016   805  1597   402   887   363   400 0.504 0.453 0.908 0.630  2375 0.670
##  2 James Harden        2016   710  1617   236   657   720   837 0.439 0.359 0.860 0.512  2376 0.598
##  3 Kevin Durant        2016   698  1381   186   480   447   498 0.505 0.388 0.898 0.573  2029 0.634
##  4 DeMarcus Cousins    2016   601  1332    70   210   476   663 0.451 0.333 0.718 0.477  1748 0.538
##  5 LeBron James        2016   737  1416    87   282   359   491 0.520 0.309 0.731 0.551  1920 0.588
##  6 Damian Lillard      2016   618  1474   229   610   414   464 0.419 0.375 0.892 0.497  1879 0.560
##  7 Anthony Davis       2016   560  1137    35   108   326   430 0.493 0.324 0.758 0.508  1481 0.558
##  8 Russell Westbrook   2016   656  1444   101   341   465   573 0.454 0.296 0.812 0.489  1878 0.554
##  9 DeMar DeRozan       2016   614  1377    47   139   555   653 0.446 0.338 0.850 0.463  1830 0.550
## 10 Paul George         2016   605  1448   210   565   454   528 0.418 0.372 0.860 0.490  1874 0.558
## # … with 6,318 more rows

We may combine these constraints by enclosing them in
parantheses.

filter(raw_shooting, (FGA >= 100 & TPA >= 50) | (FGP >= 0.45 & FGP <= 0.5))

## # A tibble: 4,837 × 14
##    PLAYER            SEASON   FGM   FGA   TPM   TPA   FTM   FTA   FGP   TPP   FTP  eFGP   PTS   TSP
##    <chr>              <dbl> <dbl> <dbl> <dbl> <dbl> <dbl> <dbl> <dbl> <dbl> <dbl> <dbl> <dbl> <dbl>
##  1 Stephen Curry       2016   805  1597   402   887   363   400 0.504 0.453 0.908 0.630  2375 0.670
##  2 James Harden        2016   710  1617   236   657   720   837 0.439 0.359 0.860 0.512  2376 0.598
##  3 Kevin Durant        2016   698  1381   186   480   447   498 0.505 0.388 0.898 0.573  2029 0.634
##  4 DeMarcus Cousins    2016   601  1332    70   210   476   663 0.451 0.333 0.718 0.477  1748 0.538
##  5 LeBron James        2016   737  1416    87   282   359   491 0.520 0.309 0.731 0.551  1920 0.588
##  6 Damian Lillard      2016   618  1474   229   610   414   464 0.419 0.375 0.892 0.497  1879 0.560
##  7 Anthony Davis       2016   560  1137    35   108   326   430 0.493 0.324 0.758 0.508  1481 0.558
##  8 Russell Westbrook   2016   656  1444   101   341   465   573 0.454 0.296 0.812 0.489  1878 0.554
##  9 DeMar DeRozan       2016   614  1377    47   139   555   653 0.446 0.338 0.850 0.463  1830 0.550
## 10 Paul George         2016   605  1448   210   565   454   528 0.418 0.372 0.860 0.490  1874 0.558
## # … with 4,827 more rows

What if we wanted to pull out the observations corresponding to the
2015-16 and 2014-15 season. We could do something like
filter(raw_shooting, (SEASON == 2016) | (SEASON == 2015)),
which would be perfectly fine. However, what if we wanted data from
1998-99, 2011-12, and 2015-16? Typing a lot of expressions like
SEASON == ... would be rather tedious. The
%in% operator lets us avoid this tedium:

filter(raw_shooting, SEASON %in% c(1999, 2012, 2016))

## # A tibble: 1,150 × 14
##    PLAYER            SEASON   FGM   FGA   TPM   TPA   FTM   FTA   FGP   TPP   FTP  eFGP   PTS   TSP
##    <chr>              <dbl> <dbl> <dbl> <dbl> <dbl> <dbl> <dbl> <dbl> <dbl> <dbl> <dbl> <dbl> <dbl>
##  1 Stephen Curry       2016   805  1597   402   887   363   400 0.504 0.453 0.908 0.630  2375 0.670
##  2 James Harden        2016   710  1617   236   657   720   837 0.439 0.359 0.860 0.512  2376 0.598
##  3 Kevin Durant        2016   698  1381   186   480   447   498 0.505 0.388 0.898 0.573  2029 0.634
##  4 DeMarcus Cousins    2016   601  1332    70   210   476   663 0.451 0.333 0.718 0.477  1748 0.538
##  5 LeBron James        2016   737  1416    87   282   359   491 0.520 0.309 0.731 0.551  1920 0.588
##  6 Damian Lillard      2016   618  1474   229   610   414   464 0.419 0.375 0.892 0.497  1879 0.560
##  7 Anthony Davis       2016   560  1137    35   108   326   430 0.493 0.324 0.758 0.508  1481 0.558
##  8 Russell Westbrook   2016   656  1444   101   341   465   573 0.454 0.296 0.812 0.489  1878 0.554
##  9 DeMar DeRozan       2016   614  1377    47   139   555   653 0.446 0.338 0.850 0.463  1830 0.550
## 10 Paul George         2016   605  1448   210   565   454   528 0.418 0.372 0.860 0.490  1874 0.558
## # … with 1,140 more rows

We could also filter out data from the two lockout-shortened seasons,
1998-99 and 2011-12 using a combination of the NOT !
operator and %in%.

filter(raw_shooting, !SEASON %in% c(1999, 2012))

## # A tibble: 6,721 × 14
##    PLAYER            SEASON   FGM   FGA   TPM   TPA   FTM   FTA   FGP   TPP   FTP  eFGP   PTS   TSP
##    <chr>              <dbl> <dbl> <dbl> <dbl> <dbl> <dbl> <dbl> <dbl> <dbl> <dbl> <dbl> <dbl> <dbl>
##  1 Stephen Curry       2016   805  1597   402   887   363   400 0.504 0.453 0.908 0.630  2375 0.670
##  2 James Harden        2016   710  1617   236   657   720   837 0.439 0.359 0.860 0.512  2376 0.598
##  3 Kevin Durant        2016   698  1381   186   480   447   498 0.505 0.388 0.898 0.573  2029 0.634
##  4 DeMarcus Cousins    2016   601  1332    70   210   476   663 0.451 0.333 0.718 0.477  1748 0.538
##  5 LeBron James        2016   737  1416    87   282   359   491 0.520 0.309 0.731 0.551  1920 0.588
##  6 Damian Lillard      2016   618  1474   229   610   414   464 0.419 0.375 0.892 0.497  1879 0.560
##  7 Anthony Davis       2016   560  1137    35   108   326   430 0.493 0.324 0.758 0.508  1481 0.558
##  8 Russell Westbrook   2016   656  1444   101   341   465   573 0.454 0.296 0.812 0.489  1878 0.554
##  9 DeMar DeRozan       2016   614  1377    47   139   555   653 0.446 0.338 0.850 0.463  1830 0.550
## 10 Paul George         2016   605  1448   210   565   454   528 0.418 0.372 0.860 0.490  1874 0.558
## # … with 6,711 more rows

For the remainder of this module, we will focus on the players who
attempted at least 100 field goals, 100 free throws, 50 three pointers
in the non-lockout seasons.

nba_shooting <- 
  filter(raw_shooting, 
         (FGA >= 100 & 
           FTA >= 100 & 
           TPA >= 50 & 
           !SEASON %in% c(1999, 2012)))
nba_shooting

## # A tibble: 2,254 × 14
##    PLAYER            SEASON   FGM   FGA   TPM   TPA   FTM   FTA   FGP   TPP   FTP  eFGP   PTS   TSP
##    <chr>              <dbl> <dbl> <dbl> <dbl> <dbl> <dbl> <dbl> <dbl> <dbl> <dbl> <dbl> <dbl> <dbl>
##  1 Stephen Curry       2016   805  1597   402   887   363   400 0.504 0.453 0.908 0.630  2375 0.670
##  2 James Harden        2016   710  1617   236   657   720   837 0.439 0.359 0.860 0.512  2376 0.598
##  3 Kevin Durant        2016   698  1381   186   480   447   498 0.505 0.388 0.898 0.573  2029 0.634
##  4 DeMarcus Cousins    2016   601  1332    70   210   476   663 0.451 0.333 0.718 0.477  1748 0.538
##  5 LeBron James        2016   737  1416    87   282   359   491 0.520 0.309 0.731 0.551  1920 0.588
##  6 Damian Lillard      2016   618  1474   229   610   414   464 0.419 0.375 0.892 0.497  1879 0.560
##  7 Anthony Davis       2016   560  1137    35   108   326   430 0.493 0.324 0.758 0.508  1481 0.558
##  8 Russell Westbrook   2016   656  1444   101   341   465   573 0.454 0.296 0.812 0.489  1878 0.554
##  9 DeMar DeRozan       2016   614  1377    47   139   555   653 0.446 0.338 0.850 0.463  1830 0.550
## 10 Paul George         2016   605  1448   210   565   454   528 0.418 0.372 0.860 0.490  1874 0.558
## # … with 2,244 more rows
…
We will have much more to say about summarize() in Lecture 3 when we discuss grouped
manipulations.

Selecting Columns

Oftentimes, the dataset you load into R contains many, many more
columns than you need. We can use select() to pull out the
columns we want to use in our subsequent analyses. For instance, we may
want to only focus on the columns SEASON, FGP, TPP, FTP, eFGP, PTS, and
TSP and ignore the rest of the columns.

select(nba_shooting, PLAYER, SEASON, FGP, TPP, FTP, eFGP, PTS, TSP)

## # A tibble: 2,254 × 8
##    PLAYER            SEASON   FGP   TPP   FTP  eFGP   PTS   TSP
##    <chr>              <dbl> <dbl> <dbl> <dbl> <dbl> <dbl> <dbl>
##  1 Stephen Curry       2016 0.504 0.453 0.908 0.630  2375 0.670
##  2 James Harden        2016 0.439 0.359 0.860 0.512  2376 0.598
##  3 Kevin Durant        2016 0.505 0.388 0.898 0.573  2029 0.634
##  4 DeMarcus Cousins    2016 0.451 0.333 0.718 0.477  1748 0.538
##  5 LeBron James        2016 0.520 0.309 0.731 0.551  1920 0.588
##  6 Damian Lillard      2016 0.419 0.375 0.892 0.497  1879 0.560
##  7 Anthony Davis       2016 0.493 0.324 0.758 0.508  1481 0.558
##  8 Russell Westbrook   2016 0.454 0.296 0.812 0.489  1878 0.554
##  9 DeMar DeRozan       2016 0.446 0.338 0.850 0.463  1830 0.550
## 10 Paul George         2016 0.418 0.372 0.860 0.490  1874 0.558
## # … with 2,244 more rows
…
