Lecture 6: Linear Regression
…
rsquare(fit, batting_2014_2015)

## [1] 0.2429305

Adding Predictions and Residuals

We can also use modelr to add predictions and residuals
to our original dataset:

batting_2014_2015 <- batting_2014_2015 %>% 
  add_predictions(model = fit, type = "response", var = "pred") %>%
  add_residuals(model = fit, var = "resid")
batting_2014_2015

## # A tibble: 70 × 5
##    playerID  BA_2014 BA_2015  pred    resid
##    <chr>       <dbl>   <dbl> <dbl>    <dbl>
##  1 abreujo02   0.317   0.290 0.295 -0.00417
##  2 altuvjo01   0.341   0.313 0.306  0.00711
##  3 andruel01   0.263   0.258 0.269 -0.0103 
##  4 aybarer01   0.278   0.270 0.276 -0.00638
##  5 bautijo02   0.286   0.250 0.280 -0.0291 
##  6 beltrad01   0.324   0.287 0.298 -0.0108 
##  7 blackch02   0.288   0.287 0.281  0.00577
##  8 bogaexa01   0.240   0.320 0.257  0.0624 
##  9 brantmi02   0.327   0.310 0.300  0.0102 
## 10 braunry02   0.266   0.285 0.270  0.0145 
## # … with 60 more rows
…
More visualization with data_grid

In the above code, we drew our fitted line using our coefficients
from fit and geom_abline to specify the slope
and the intercept. An alternative way to plot our fitted line is to use
the function data_grid. This function creates a grid of
evenly spaced points over the range of our x data.

grid <- batting_2014_2015 %>%
  data_grid(BA_2014)
grid

## # A tibble: 70 × 1
##    BA_2014
##      <dbl>
##  1   0.196
##  2   0.217
##  3   0.227
##  4   0.231
##  5   0.232
##  6   0.240
##  7   0.24 
##  8   0.242
##  9   0.242
## 10   0.243
## # … with 60 more rows
…
