Lecture 7: More About Regression
…
fg_test <-
  fg_test %>%
  inner_join(phat_kicker, by = "Kicker")

To verify that we have successfully performed this join, we can print
out a few rows of fg_test:

select(fg_test, Kicker, Success, phat_kicker)

## # A tibble: 1,682 × 3
##    Kicker  Success phat_kicker
##    <chr>     <dbl>       <dbl>
##  1 Akers         1       0.788
##  2 Akers         1       0.788
##  3 Bironas       1       0.850
##  4 Bironas       1       0.850
##  5 Bironas       1       0.850
##  6 Brien         0       0.333
##  7 Brown         0       0.829
##  8 Brown         1       0.829
##  9 Brown         1       0.829
## 10 Brown         1       0.829
## # … with 1,672 more rows
…
