Problem Set 2
…
hitting_qualified <- mutate(hitting_qualified,
                            IBB = as.integer(IBB),
                            HBP = as.integer(HBP),
                            SH = as.integer(SH),
                            SF = as.integer(SF),
                            GIDP = as.integer(GIDP))

Let’s take a look at some of the columns we just converted:

select(hitting_qualified, playerID, yearID, AB, IBB, HBP, SH, SF, GIDP)

## # A tibble: 12,043 × 8
##    playerID  yearID    AB   IBB   HBP    SH    SF  GIDP
##    <chr>      <dbl> <dbl> <int> <int> <int> <int> <int>
##  1 ansonca01   1884   475    NA    NA    NA    NA    NA
##  2 bradyst01   1884   485    NA     0    NA    NA    NA
##  3 connoro01   1884   477    NA    NA    NA    NA    NA
##  4 dalryab01   1884   521    NA    NA    NA    NA    NA
##  5 farreja02   1884   469    NA    NA    NA    NA    NA
##  6 gleasbi01   1884   472    NA    12    NA    NA    NA
##  7 hinespa01   1884   490    NA    NA    NA    NA    NA
##  8 hornujo01   1884   518    NA    NA    NA    NA    NA
##  9 jonesch01   1884   472    NA    10    NA    NA    NA
## 10 nelsoca01   1884   432    NA     9    NA    NA    NA
## # … with 12,033 more rows
…
