Problem Set 3
…
To load the batting data into R, we can do the following

> library(tidyverse)
> library(Lahman)
> batting <- as_tibble(Batting)

Unfortunately, some statistics like hit-by-pitch (HBP) were not
recorded in the earlier decades of baseball. In the tbl, these missing
values are designated NA. To see some of these, we can run
the following code:

> batting %>% 
+   select(playerID, yearID, teamID, AB, BB, HBP, SH, SF, IBB, GIDP)
# A tibble: 110,495 × 10
   playerID  yearID teamID    AB    BB   HBP    SH    SF   IBB  GIDP
   <chr>      <int> <fct>  <int> <int> <int> <int> <int> <int> <int>
 1 abercda01   1871 TRO        4     0    NA    NA    NA    NA     0
 2 addybo01    1871 RC1      118     4    NA    NA    NA    NA     0
 3 allisar01   1871 CL1      137     2    NA    NA    NA    NA     1
 4 allisdo01   1871 WS3      133     0    NA    NA    NA    NA     0
 5 ansonca01   1871 RC1      120     2    NA    NA    NA    NA     0
 6 armstbo01   1871 FW1       49     0    NA    NA    NA    NA     0
 7 barkeal01   1871 RC1        4     1    NA    NA    NA    NA     0
 8 barnero01   1871 BS1      157    13    NA    NA    NA    NA     1
 9 barrebi01   1871 FW1        5     0    NA    NA    NA    NA     0
10 barrofr01   1871 BS1       86     0    NA    NA    NA    NA     0
# … with 110,485 more rows

A common convention for dealing with the missing values when
computing \(\text{PA}\) is to replace
the NA with a 0. To do this, we can use the
function replace_na() within a pipe as follows.

> batting <- 
+   batting %>% 
+   replace_na(list(IBB = 0, HBP = 0, SH = 0, SF = 0, GIDP = 0))
> batting %>% select(playerID, yearID, teamID, AB, BB, HBP, SH, SF, IBB)
# A tibble: 110,495 × 9
   playerID  yearID teamID    AB    BB   HBP    SH    SF   IBB
   <chr>      <int> <fct>  <int> <int> <int> <int> <int> <int>
 1 abercda01   1871 TRO        4     0     0     0     0     0
 2 addybo01    1871 RC1      118     4     0     0     0     0
 3 allisar01   1871 CL1      137     2     0     0     0     0
 4 allisdo01   1871 WS3      133     0     0     0     0     0
 5 ansonca01   1871 RC1      120     2     0     0     0     0
 6 armstbo01   1871 FW1       49     0     0     0     0     0
 7 barkeal01   1871 RC1        4     1     0     0     0     0
 8 barnero01   1871 BS1      157    13     0     0     0     0
 9 barrebi01   1871 FW1        5     0     0     0     0     0
10 barrofr01   1871 BS1       86     0     0     0     0     0
# … with 110,485 more rows
…
