Lecture 5: Correlation, Linear Regression and Prediction
…
In order to study the relationship between a player’s 2017 batting
average and his 2018 batting average, it will be more convenient to
store the data as below.

## # A tibble: 196 × 3
## # Groups:   playerID [196]
##    playerID  `2017` `2018`
##    <chr>      <dbl>  <dbl>
##  1 abreujo02  0.304  0.265
##  2 adamsma01  0.274  0.239
##  3 alonsyo01  0.266  0.25 
##  4 altuvjo01  0.346  0.316
##  5 anderti01  0.257  0.240
##  6 andruel01  0.297  0.256
##  7 arciaor01  0.277  0.236
##  8 arenano01  0.309  0.297
##  9 baezja01   0.273  0.290
## 10 barnhtu01  0.270  0.248
## # … with 186 more rows
…
rsquare(fit, batting_2017_2018)

## [1] 0.2299205

Adding Predictions and Residuals

We can also use modelr to add predictions and residuals
to our original dataset:

batting_2017_2018 <- batting_2017_2018 %>% 
  add_predictions(model = fit, type = "response", var = "pred") %>%
  add_residuals(model = fit, var = "resid")
batting_2017_2018

## # A tibble: 196 × 5
##    playerID  BA_2017 BA_2018  pred    resid
##    <chr>       <dbl>   <dbl> <dbl>    <dbl>
##  1 abreujo02   0.304   0.265 0.275 -0.0101 
##  2 adamsma01   0.274   0.239 0.260 -0.0219 
##  3 alonsyo01   0.266   0.25  0.257 -0.00654
##  4 altuvjo01   0.346   0.316 0.294  0.0222 
##  5 anderti01   0.257   0.240 0.252 -0.0125 
##  6 andruel01   0.297   0.256 0.271 -0.0155 
##  7 arciaor01   0.277   0.236 0.262 -0.0259 
##  8 arenano01   0.309   0.297 0.277  0.0199 
##  9 baezja01    0.273   0.290 0.260  0.0307 
## 10 barnhtu01   0.270   0.248 0.259 -0.0107 
## # … with 186 more rows
…
