Lecture 4
…
Using what we covered in previous lectures, we will create a new
tibble called pitching which contains all players who
pitched at least 150 innings, played in either the AL or the NL and
which contains only the columns corresponding the player, year, team,
league, innings pitched, and ERA.

pitching <- Pitching %>%
  mutate(IP = IPouts / 3) %>% 
  filter(lgID %in% c('AL', 'NL') & IP >= 150) %>%
  select(playerID, yearID, teamID, lgID, IP, ERA)
pitching

## # A tibble: 9,577 × 6
##    playerID  yearID teamID lgID     IP   ERA
##    <chr>      <int> <fct>  <fct> <dbl> <dbl>
##  1 bondto01    1876 HAR    NL     408   1.68
##  2 bordejo01   1876 BSN    NL     218.  2.89
##  3 bradlfo01   1876 BSN    NL     173.  2.49
##  4 bradlge01   1876 SL3    NL     573   1.23
##  5 cummica01   1876 HAR    NL     216   1.67
##  6 deando01    1876 CN1    NL     263.  3.73
##  7 devliji01   1876 LS1    NL     622   1.56
##  8 fishech01   1876 CN1    NL     229.  3.02
##  9 knighlo01   1876 PHN    NL     282   2.62
## 10 mannija01   1876 BSN    NL     197.  2.14
## # … with 9,567 more rows
…
Looking at the plot, it appears that some of the pitchers from the
first few decades of baseball had the lowest ERA. Using
arrange(), we can see which pitcher had the best season
according to ERA.

arrange(pitching, ERA)

## # A tibble: 9,577 × 6
##    playerID  yearID teamID lgID     IP   ERA
##    <chr>      <int> <fct>  <fct> <dbl> <dbl>
##  1 leonadu01   1914 BOS    AL     225.  0.96
##  2 brownmo01   1906 CHN    NL     277.  1.04
##  3 gibsobo01   1968 SLN    NL     305.  1.12
##  4 mathech01   1909 NY1    NL     275.  1.14
##  5 johnswa01   1913 WS1    AL     346   1.14
##  6 pfiesja01   1907 CHN    NL     195   1.15
##  7 jossad01    1908 CLE    AL     325   1.16
##  8 lundgca01   1907 CHN    NL     207   1.17
##  9 alexape01   1915 PHI    NL     376.  1.22
## 10 bradlge01   1876 SL3    NL     573   1.23
## # … with 9,567 more rows
…
For now, don’t worry too much about the syntax or the
na.rm = TRUE bits - that’s just telling R to remove any
missing values when computing the average and standard deviation (easy
way to deal with messy data). Armed with our standardize()
function, we can add a column called z_era_all which
transforms ERA to the standardized scale.

pitching <- pitching %>%
  mutate(z_era_all = standardize(ERA))
pitching %>% arrange(z_era_all)

## # A tibble: 9,577 × 7
##    playerID  yearID teamID lgID     IP   ERA z_era_all
##    <chr>      <int> <fct>  <fct> <dbl> <dbl>     <dbl>
##  1 leonadu01   1914 BOS    AL     225.  0.96     -3.01
##  2 brownmo01   1906 CHN    NL     277.  1.04     -2.92
##  3 gibsobo01   1968 SLN    NL     305.  1.12     -2.83
##  4 mathech01   1909 NY1    NL     275.  1.14     -2.81
##  5 johnswa01   1913 WS1    AL     346   1.14     -2.81
##  6 pfiesja01   1907 CHN    NL     195   1.15     -2.79
##  7 jossad01    1908 CLE    AL     325   1.16     -2.78
##  8 lundgca01   1907 CHN    NL     207   1.17     -2.77
##  9 alexape01   1915 PHI    NL     376.  1.22     -2.71
## 10 bradlge01   1876 SL3    NL     573   1.23     -2.70
## # … with 9,567 more rows
…
When we print out pitching now, we notice an extra line
that tells us the grouping variable. Now when we pass this dataset on to
subsequent calculations, these calculations will be done on each
group.

We can now summarize each season using another tidyverse
function called… summarize()! This convenient function will
compute summary statistics that we specify with respect to the groups
from group_by(). For instance, we can compute the average
ERA in each year in the following way:

pitching %>%
  summarize(ave_ERA = mean(ERA))

## # A tibble: 145 × 2
##    yearID ave_ERA
##     <int>   <dbl>
##  1   1876    2.42
##  2   1877    2.78
##  3   1878    2.32
##  4   1879    2.57
##  5   1880    2.33
##  6   1881    2.76
##  7   1882    2.76
##  8   1883    2.79
##  9   1884    3.04
## 10   1885    2.87
## # … with 135 more rows
…
pitching_summary <- pitching %>% 
  summarize(mean = mean(ERA), 
            sd = sd(ERA))

One of the most commonly used functions, n(), returns
counts and is especially useful when used on a grouped dataset We can,
for instance, count the number of pitchers in our dataset within each
year using n().

pitching %>% 
  summarize(count = n()) %>%
  arrange(count)

## # A tibble: 145 × 2
##    yearID count
##     <int> <int>
##  1   1877     7
##  2   1878     7
##  3   1880    12
##  4   1876    13
##  5   1879    13
##  6   1883    13
##  7   1881    14
##  8   1882    14
##  9   1884    19
## 10   1885    19
## # … with 135 more rows

Or equivalently, we can use the count function:

pitching %>% 
  count() %>%
  arrange(n)

## # A tibble: 145 × 2
## # Groups:   yearID [145]
##    yearID     n
##     <int> <int>
##  1   1877     7
##  2   1878     7
##  3   1880    12
##  4   1876    13
##  5   1879    13
##  6   1883    13
##  7   1881    14
##  8   1882    14
##  9   1884    19
## 10   1885    19
## # … with 135 more rows
…
pitching %>% 
  summarize(count = n()) %>%
  filter(count >= 90) %>%
  arrange(desc(count))

Once we add a grouping to our dataset, it also changes the way
mutate() operates on it. We can now standardize each
pitcher’s ERA within each year and store that result in a column called
z_era_year

pitching <- pitching %>%
  mutate(z_era_year = standardize(ERA))
pitching %>% arrange(z_era_year)

## # A tibble: 9,577 × 8
## # Groups:   yearID [145]
##    playerID  yearID teamID lgID     IP   ERA z_era_all z_era_year
##    <chr>      <int> <fct>  <fct> <dbl> <dbl>     <dbl>      <dbl>
##  1 leonadu01   1914 BOS    AL     225.  0.96     -3.01      -3.48
##  2 martipe02   2000 BOS    AL     217   1.74     -2.12      -3.16
##  3 maddugr01   1995 ATL    NL     210.  1.63     -2.25      -3.02
##  4 luquedo01   1923 CIN    NL     322   1.93     -1.91      -2.88
##  5 martipe02   1999 BOS    AL     213.  2.07     -1.75      -2.85
##  6 brownke01   1996 FLO    NL     233   1.89     -1.95      -2.82
##  7 eichhma01   1986 TOR    AL     157   1.72     -2.15      -2.81
##  8 maddugr01   1994 ATL    NL     202   1.56     -2.33      -2.79
##  9 piercbi02   1955 CHA    AL     206.  1.97     -1.86      -2.77
## 10 hubbeca01   1933 NY1    NL     309.  1.66     -2.22      -2.77
## # … with 9,567 more rows
…
pitching <- pitching %>%
  group_by(yearID, lgID) %>%
  mutate(z_era_year_lg = standardize(ERA),
         count = n())

When we arrange by the ERA standardized within the year and league,
we now see that Pedro Martinez’s 1999 and 2000 season with the Red Sox
were even better than Dutch Leonard’s 1914 season!

pitching %>%
  arrange(z_era_year_lg)

## # A tibble: 9,577 × 10
## # Groups:   yearID, lgID [265]
##    playerID  yearID teamID lgID     IP   ERA z_era_all z_era_year z_era_year_lg count
##    <chr>      <int> <fct>  <fct> <dbl> <dbl>     <dbl>      <dbl>         <dbl> <int>
##  1 martipe02   2000 BOS    AL     217   1.74     -2.12      -3.16         -3.55    42
##  2 martipe02   1999 BOS    AL     213.  2.07     -1.75      -2.85         -3.15    40
##  3 leonadu01   1914 BOS    AL     225.  0.96     -3.01      -3.48         -3.13    35
##  4 eichhma01   1986 TOR    AL     157   1.72     -2.15      -2.81         -3.06    49
##  5 youngcy01   1901 BOS    AL     371.  1.62     -2.26      -2.51         -2.81    32
##  6 alexape01   1915 PHI    NL     376.  1.22     -2.71      -2.28         -2.78    37
##  7 maddugr01   1995 ATL    NL     210.  1.63     -2.25      -3.02         -2.75    34
##  8 gibsobo01   1968 SLN    NL     305.  1.12     -2.83      -2.73         -2.75    43
##  9 grovele01   1931 PHA    AL     289.  2.06     -1.76      -2.39         -2.74    35
## 10 guidrro01   1978 NYA    AL     274.  1.74     -2.12      -2.67         -2.73    55
## # … with 9,567 more rows
…
