Lecture 2: The grammar of graphics and filtering data
…
> and >= for “greater than” and
“greater than or equal to”

&, |, ! for “AND” and
“OR” and “NOT”

The code below filter out all of the players with at least 100 field
goals in a single season.

raw_shooting %>%
  filter(FGA > 100)

## # A tibble: 6,295 × 14
##    PLAYER   SEASON   FGM   FGA   TPM   TPA   FTM   FTA     FGP     TPP     FTP    eFGP   PTS     TSP
##    <chr>     <dbl> <dbl> <dbl> <dbl> <dbl> <dbl> <dbl>   <dbl>   <dbl>   <dbl>   <dbl> <dbl>   <dbl>
##  1 Chris W…   2013   110   153     0     1    39    58 0.71895 0       0.67241 0.71895   259 0.72541
##  2 Tyson C…   2012   241   355     0     2   217   315 0.67887 0       0.68889 0.67887   699 0.70806
##  3 Kyle Ko…   2015   292   600   221   449   106   118 0.48667 0.49220 0.89831 0.67083   911 0.69871
##  4 Steve N…   2012   161   337   133   282    22    26 0.47774 0.47163 0.84615 0.67507   477 0.68448
##  5 Chris A…   2014   177   275     3    12   120   169 0.64364 0.25    0.71006 0.64909   477 0.68268
##  6 Jeremy …   2011    76   115     0     1    26    37 0.66087 0       0.70270 0.66087   178 0.67794
##  7 Carlos …   2001    75   110     0     1    29    52 0.68182 0       0.55769 0.68182   179 0.67354
##  8 Mason P…   2014   199   302     0     3   122   195 0.65894 0       0.62564 0.65894   520 0.67045
##  9 Stephen…   2016   805  1597   402   887   363   400 0.50407 0.45321 0.9075  0.62993  2375 0.66977
## 10 Brent B…   2004   215   427   114   252    91   110 0.50351 0.45238 0.82727 0.63700   635 0.66786
## # ℹ 6,285 more rows

When we run this code, you’ll notice that R prints out a
tbl with 6,295 rows.

We can also filter on more complicated conditions constructed using
the AND, OR, and NOT operators: &, |, and
!. For instance, to filter observations with at least 100
field goal attempts OR 50 three point attempts, we would do

raw_shooting %>%
  filter(FGA >= 100 | TPA >= 50)

## # A tibble: 6,328 × 14
##    PLAYER   SEASON   FGM   FGA   TPM   TPA   FTM   FTA     FGP     TPP     FTP    eFGP   PTS     TSP
##    <chr>     <dbl> <dbl> <dbl> <dbl> <dbl> <dbl> <dbl>   <dbl>   <dbl>   <dbl>   <dbl> <dbl>   <dbl>
##  1 Chris W…   2013   110   153     0     1    39    58 0.71895 0       0.67241 0.71895   259 0.72541
##  2 Tyson C…   2012   241   355     0     2   217   315 0.67887 0       0.68889 0.67887   699 0.70806
##  3 Kyle Ko…   2015   292   600   221   449   106   118 0.48667 0.49220 0.89831 0.67083   911 0.69871
##  4 Steve N…   2012   161   337   133   282    22    26 0.47774 0.47163 0.84615 0.67507   477 0.68448
##  5 Chris A…   2014   177   275     3    12   120   169 0.64364 0.25    0.71006 0.64909   477 0.68268
##  6 Jeremy …   2011    76   115     0     1    26    37 0.66087 0       0.70270 0.66087   178 0.67794
##  7 Carlos …   2001    75   110     0     1    29    52 0.68182 0       0.55769 0.68182   179 0.67354
##  8 Brian C…   2011    43   100    42    87    17    18 0.43    0.48276 0.94444 0.64      145 0.67179
##  9 Mason P…   2014   199   302     0     3   122   195 0.65894 0       0.62564 0.65894   520 0.67045
## 10 Stephen…   2016   805  1597   402   887   363   400 0.50407 0.45321 0.9075  0.62993  2375 0.66977
## # ℹ 6,318 more rows

We may combine these constraints by enclosing them in
parentheses.

raw_shooting %>%
  filter((FGA >= 100 & TPA >= 50) | (FGP >= 0.45 & FGP <= 0.5))

## # A tibble: 4,837 × 14
##    PLAYER   SEASON   FGM   FGA   TPM   TPA   FTM   FTA     FGP     TPP     FTP    eFGP   PTS     TSP
##    <chr>     <dbl> <dbl> <dbl> <dbl> <dbl> <dbl> <dbl>   <dbl>   <dbl>   <dbl>   <dbl> <dbl>   <dbl>
##  1 Keith B…   2014     3     6     3     6     3     3 0.5     0.5     1       0.75       12 0.81967
##  2 Kyle Ko…   2015   292   600   221   449   106   118 0.48667 0.49220 0.89831 0.67083   911 0.69871
##  3 Aleksan…   1997     8    16     5     7     4     5 0.5     0.71429 0.8     0.65625    25 0.68681
##  4 Steve N…   2012   161   337   133   282    22    26 0.47774 0.47163 0.84615 0.67507   477 0.68448
##  5 Brian C…   2011    43   100    42    87    17    18 0.43    0.48276 0.94444 0.64      145 0.67179
##  6 Stephen…   2016   805  1597   402   887   363   400 0.50407 0.45321 0.9075  0.62993  2375 0.66977
##  7 Brent B…   2004   215   427   114   252    91   110 0.50351 0.45238 0.82727 0.63700   635 0.66786
##  8 Manu Gi…   2012   150   285    52   126    88   101 0.52632 0.41270 0.87129 0.61754   440 0.66780
##  9 Steve K…   1997   249   467   110   237    54    67 0.53319 0.46414 0.80597 0.65096   662 0.66669
## 10 Brent B…   2007   202   425   128   287   103   117 0.47529 0.44599 0.88034 0.62588   635 0.66634
## # ℹ 4,827 more rows

What if we wanted to pull out the observations corresponding to the
2015-16 and 2014-15 season? We could do something like
filter(raw_shooting, (SEASON == 2016) | (SEASON == 2015)),
which would be perfectly fine. However, what if we wanted data from
1998-99, 2011-12, and 2015-16? Typing a lot of expressions like
SEASON == ... would be rather tedious. The
%in% operator lets us avoid this tedium:

raw_shooting %>%
  filter(SEASON %in% c(1999, 2012, 2016))

## # A tibble: 1,150 × 14
##    PLAYER   SEASON   FGM   FGA   TPM   TPA   FTM   FTA     FGP     TPP     FTP    eFGP   PTS     TSP
##    <chr>     <dbl> <dbl> <dbl> <dbl> <dbl> <dbl> <dbl>   <dbl>   <dbl>   <dbl>   <dbl> <dbl>   <dbl>
##  1 Tyson W…   1999     1     1     1     1     1     2 1       1       0.5     1.5         4 1.0638 
##  2 Tyson C…   2012   241   355     0     2   217   315 0.67887 0       0.68889 0.67887   699 0.70806
##  3 Jorge G…   2016     6    11     0     2    10    11 0.54545 0       0.90909 0.54545    22 0.69444
##  4 Steve N…   2012   161   337   133   282    22    26 0.47774 0.47163 0.84615 0.67507   477 0.68448
##  5 Sam Jac…   1999     3     5     0     1     2     2 0.6     0       1       0.6         8 0.68027
##  6 Stephen…   2016   805  1597   402   887   363   400 0.50407 0.45321 0.9075  0.62993  2375 0.66977
##  7 Manu Gi…   2012   150   285    52   126    88   101 0.52632 0.41270 0.87129 0.61754   440 0.66780
##  8 James H…   2012   309   629   114   292   312   369 0.49126 0.39041 0.84553 0.58188  1044 0.65962
##  9 Steve N…   2016     8    18     7    15     1     1 0.44444 0.46667 1       0.63889    24 0.65076
## 10 Brad Mi…   1999    78   138     1     2    81   102 0.56522 0.5     0.79412 0.56884   238 0.65070
## # ℹ 1,140 more rows

We could also filter out data from the two lockout-shortened seasons,
1998-99 and 2011-12 using a combination of the NOT !
operator and %in%.

raw_shooting %>%
  filter(!SEASON %in% c(1999, 2012))

## # A tibble: 6,721 × 14
##    PLAYER   SEASON   FGM   FGA   TPM   TPA   FTM   FTA     FGP     TPP     FTP    eFGP   PTS     TSP
##    <chr>     <dbl> <dbl> <dbl> <dbl> <dbl> <dbl> <dbl>   <dbl>   <dbl>   <dbl>   <dbl> <dbl>   <dbl>
##  1 Dajuan …   2007     1     1     1     1     1     2 1       1       0.5     1.5         4 1.0638 
##  2 Amir Jo…   2006     7    10     2     3     4     4 0.7     0.66667 1       0.8        20 0.85034
##  3 Keith B…   2014     3     6     3     6     3     3 0.5     0.5     1       0.75       12 0.81967
##  4 Steve N…   2011    35    67    26    46     8     8 0.52239 0.56522 1       0.71642   104 0.73738
##  5 Chris C…   2003     8    13     1     3     7     8 0.61538 0.33333 0.875   0.65385    24 0.72639
##  6 Chris W…   2013   110   153     0     1    39    58 0.71895 0       0.67241 0.71895   259 0.72541
##  7 Maceo B…   2007    49    76     3     7    37    47 0.64474 0.42857 0.78723 0.66447   138 0.71369
##  8 Kyle Ko…   2015   292   600   221   449   106   118 0.48667 0.49220 0.89831 0.67083   911 0.69871
##  9 Jorge G…   2016     6    11     0     2    10    11 0.54545 0       0.90909 0.54545    22 0.69444
## 10 Aleksan…   1997     8    16     5     7     4     5 0.5     0.71429 0.8     0.65625    25 0.68681
## # ℹ 6,711 more rows
…
